---
http_interactions:
- request:
    method: get
    uri: https://pokeapi.co/api/v2/berry
    body:
      encoding: US-ASCII
      string: ''
    headers:
      Accept-Encoding:
      - gzip;q=1.0,deflate;q=0.6,identity;q=0.3
      Accept:
      - "*/*"
      User-Agent:
      - Ruby
      Host:
      - pokeapi.co
  response:
    status:
      code: 200
      message: OK
    headers:
      Date:
      - Thu, 23 Dec 2021 03:09:25 GMT
      Content-Type:
      - application/json; charset=utf-8
      Content-Length:
      - '280'
      Connection:
      - keep-alive
      Access-Control-Allow-Origin:
      - "*"
      Cache-Control:
      - public, max-age=86400, s-maxage=86400
      Etag:
      - W/"51d-GY/V9nENFrEJrqhH0BzJzc1v8j0"
      Function-Execution-Id:
      - bihbvfy7g6gz
      X-Cloud-Trace-Context:
      - 9c04a8271b60c7eea7f69dca5a4bef59;o=1
      X-Country-Code:
      - MX
      X-Fh-No-Setcookie-Unroll:
      - 'true'
      X-Powered-By:
      - Express
      X-Served-By:
      - cache-dal21257-DAL
      X-Cache:
      - MISS
      X-Cache-Hits:
      - '0'
      X-Timer:
      - S1640226866.842622,VS0,VE466
      Vary:
      - Accept-Encoding,cookie,need-authorization, x-fh-requested-host, accept-encoding
      Cf-Cache-Status:
      - HIT
      Age:
      - '2099'
      Accept-Ranges:
      - bytes
      Expect-Ct:
      - max-age=604800, report-uri="https://report-uri.cloudflare.com/cdn-cgi/beacon/expect-ct"
      Report-To:
      - '{"endpoints":[{"url":"https:\/\/a.nel.cloudflare.com\/report\/v3?s=t4D66OM2lwEKv4gPPjQWLdOQA0XnmUpqX25%2FJuqHxUj9IZEAKz7Ga0ZlWMmkluKJa7fhI8pTBzPT3E2NqxnLnvQn03Gk2wKMriis7a4MIiLKvqooCQjCyOIbQjw3"}],"group":"cf-nel","max_age":604800}'
      Nel:
      - '{"success_fraction":0,"report_to":"cf-nel","max_age":604800}'
      Server:
      - cloudflare
      Cf-Ray:
      - 6c1e641a0bb9523b-MEX
      Alt-Svc:
      - h3=":443"; ma=86400, h3-29=":443"; ma=86400, h3-28=":443"; ma=86400, h3-27=":443";
        ma=86400
    body:
      encoding: ASCII-8BIT
      string: '{"count":64,"next":"https://pokeapi.co/api/v2/berry?offset=20&limit=20","previous":null,"results":[{"name":"cheri","url":"https://pokeapi.co/api/v2/berry/1/"},{"name":"chesto","url":"https://pokeapi.co/api/v2/berry/2/"},{"name":"pecha","url":"https://pokeapi.co/api/v2/berry/3/"},{"name":"rawst","url":"https://pokeapi.co/api/v2/berry/4/"},{"name":"aspear","url":"https://pokeapi.co/api/v2/berry/5/"},{"name":"leppa","url":"https://pokeapi.co/api/v2/berry/6/"},{"name":"oran","url":"https://pokeapi.co/api/v2/berry/7/"},{"name":"persim","url":"https://pokeapi.co/api/v2/berry/8/"},{"name":"lum","url":"https://pokeapi.co/api/v2/berry/9/"},{"name":"sitrus","url":"https://pokeapi.co/api/v2/berry/10/"},{"name":"figy","url":"https://pokeapi.co/api/v2/berry/11/"},{"name":"wiki","url":"https://pokeapi.co/api/v2/berry/12/"},{"name":"mago","url":"https://pokeapi.co/api/v2/berry/13/"},{"name":"aguav","url":"https://pokeapi.co/api/v2/berry/14/"},{"name":"iapapa","url":"https://pokeapi.co/api/v2/berry/15/"},{"name":"razz","url":"https://pokeapi.co/api/v2/berry/16/"},{"name":"bluk","url":"https://pokeapi.co/api/v2/berry/17/"},{"name":"nanab","url":"https://pokeapi.co/api/v2/berry/18/"},{"name":"wepear","url":"https://pokeapi.co/api/v2/berry/19/"},{"name":"pinap","url":"https://pokeapi.co/api/v2/berry/20/"}]}'
  recorded_at: Thu, 23 Dec 2021 03:09:25 GMT
- request:
    method: get
    uri: https://pokeapi.co/api/v2/berry?limit=20&offset=20
    body:
      encoding: US-ASCII
      string: ''
    headers:
      Accept-Encoding:
      - gzip;q=1.0,deflate;q=0.6,identity;q=0.3
      Accept:
      - "*/*"
      User-Agent:
      - Ruby
      Host:
      - pokeapi.co
  response:
    status:
      code: 200
      message: OK
    headers:
      Date:
      - Thu, 23 Dec 2021 03:09:25 GMT
      Content-Type:
      - application/json; charset=utf-8
      Content-Length:
      - '292'
      Connection:
      - keep-alive
      Access-Control-Allow-Origin:
      - "*"
      Cache-Control:
      - public, max-age=86400, s-maxage=86400
      Etag:
      - W/"560-FbZH80SKD6E6l4qHSgMeILceij8"
      Function-Execution-Id:
      - hzvfwqhsx2jh
      X-Cloud-Trace-Context:
      - dfb753c6ec390920dfbcc9c3f46d6984;o=1
      X-Country-Code:
      - MX
      X-Fh-No-Setcookie-Unroll:
      - 'true'
      X-Powered-By:
      - Express
      X-Served-By:
      - cache-dal21275-DAL
      X-Cache:
      - MISS
      X-Cache-Hits:
      - '0'
      X-Timer:
      - S1640226867.574653,VS0,VE265
      Vary:
      - Accept-Encoding,cookie,need-authorization, x-fh-requested-host, accept-encoding
      Cf-Cache-Status:
      - HIT
      Age:
      - '2099'
      Accept-Ranges:
      - bytes
      Expect-Ct:
      - max-age=604800, report-uri="https://report-uri.cloudflare.com/cdn-cgi/beacon/expect-ct"
      Report-To:
      - '{"endpoints":[{"url":"https:\/\/a.nel.cloudflare.com\/report\/v3?s=l%2Bpy9Av%2FxfDqNEGawMrP3xUVj6CDUGihR89NmvcFNavy%2FobveOBnv8as53Q45wPxc0D1NmN%2Be1YpNltI7y2ys2SdzDERi5zAGaKkAg153W5VJxTmZraKdRUBjmbb"}],"group":"cf-nel","max_age":604800}'
      Nel:
      - '{"success_fraction":0,"report_to":"cf-nel","max_age":604800}'
      Server:
      - cloudflare
      Cf-Ray:
      - 6c1e641afdcf521d-MEX
      Alt-Svc:
      - h3=":443"; ma=86400, h3-29=":443"; ma=86400, h3-28=":443"; ma=86400, h3-27=":443";
        ma=86400
    body:
      encoding: ASCII-8BIT
      string: '{"count":64,"next":"https://pokeapi.co/api/v2/berry?offset=40&limit=20","previous":"https://pokeapi.co/api/v2/berry?offset=0&limit=20","results":[{"name":"pomeg","url":"https://pokeapi.co/api/v2/berry/21/"},{"name":"kelpsy","url":"https://pokeapi.co/api/v2/berry/22/"},{"name":"qualot","url":"https://pokeapi.co/api/v2/berry/23/"},{"name":"hondew","url":"https://pokeapi.co/api/v2/berry/24/"},{"name":"grepa","url":"https://pokeapi.co/api/v2/berry/25/"},{"name":"tamato","url":"https://pokeapi.co/api/v2/berry/26/"},{"name":"cornn","url":"https://pokeapi.co/api/v2/berry/27/"},{"name":"magost","url":"https://pokeapi.co/api/v2/berry/28/"},{"name":"rabuta","url":"https://pokeapi.co/api/v2/berry/29/"},{"name":"nomel","url":"https://pokeapi.co/api/v2/berry/30/"},{"name":"spelon","url":"https://pokeapi.co/api/v2/berry/31/"},{"name":"pamtre","url":"https://pokeapi.co/api/v2/berry/32/"},{"name":"watmel","url":"https://pokeapi.co/api/v2/berry/33/"},{"name":"durin","url":"https://pokeapi.co/api/v2/berry/34/"},{"name":"belue","url":"https://pokeapi.co/api/v2/berry/35/"},{"name":"occa","url":"https://pokeapi.co/api/v2/berry/36/"},{"name":"passho","url":"https://pokeapi.co/api/v2/berry/37/"},{"name":"wacan","url":"https://pokeapi.co/api/v2/berry/38/"},{"name":"rindo","url":"https://pokeapi.co/api/v2/berry/39/"},{"name":"yache","url":"https://pokeapi.co/api/v2/berry/40/"}]}'
  recorded_at: Thu, 23 Dec 2021 03:09:25 GMT
- request:
    method: get
    uri: https://pokeapi.co/api/v2/berry?limit=4&offset=60
    body:
      encoding: US-ASCII
      string: ''
    headers:
      Accept-Encoding:
      - gzip;q=1.0,deflate;q=0.6,identity;q=0.3
      Accept:
      - "*/*"
      User-Agent:
      - Ruby
      Host:
      - pokeapi.co
  response:
    status:
      code: 200
      message: OK
    headers:
      Date:
      - Thu, 23 Dec 2021 03:09:25 GMT
      Content-Type:
      - application/json; charset=utf-8
      Transfer-Encoding:
      - chunked
      Connection:
      - keep-alive
      Access-Control-Allow-Origin:
      - "*"
      Cache-Control:
      - public, max-age=86400, s-maxage=86400
      Etag:
      - W/"159-JdfAjeik3oWlK3/9Ser5YMQ02Q0"
      Function-Execution-Id:
      - u352h9ilnwtm
      X-Cloud-Trace-Context:
      - a5971734666607ccbac781d470d5ac56
      X-Country-Code:
      - MX
      X-Fh-No-Setcookie-Unroll:
      - 'true'
      X-Powered-By:
      - Express
      X-Served-By:
      - cache-dal21269-DAL
      X-Cache:
      - MISS
      X-Cache-Hits:
      - '0'
      X-Timer:
      - S1640226867.568315,VS0,VE218
      Vary:
      - Accept-Encoding,cookie,need-authorization, x-fh-requested-host, accept-encoding
      Cf-Cache-Status:
      - HIT
      Age:
      - '2099'
      Expect-Ct:
      - max-age=604800, report-uri="https://report-uri.cloudflare.com/cdn-cgi/beacon/expect-ct"
      Report-To:
      - '{"endpoints":[{"url":"https:\/\/a.nel.cloudflare.com\/report\/v3?s=s5Cqrsr2g8LarxzI4Js5J4CoPPb2u4ednyG5%2F%2BWiZVdh1hqbdOjD8GKFSLdDa8awzSeGt94V78PHKDGqrXZuQqaxQ3%2BPcBwnBAhj1q%2Bc69gnD9kotcwfatxF5TCG"}],"group":"cf-nel","max_age":604800}'
      Nel:
      - '{"success_fraction":0,"report_to":"cf-nel","max_age":604800}'
      Server:
      - cloudflare
      Cf-Ray:
      - 6c1e641b0ff15211-MEX
      Alt-Svc:
      - h3=":443"; ma=86400, h3-29=":443"; ma=86400, h3-28=":443"; ma=86400, h3-27=":443";
        ma=86400
    body:
      encoding: ASCII-8BIT
      string: '{"count":64,"next":null,"previous":"https://pokeapi.co/api/v2/berry?offset=56&limit=4","results":[{"name":"micle","url":"https://pokeapi.co/api/v2/berry/61/"},{"name":"custap","url":"https://pokeapi.co/api/v2/berry/62/"},{"name":"jaboca","url":"https://pokeapi.co/api/v2/berry/63/"},{"name":"rowap","url":"https://pokeapi.co/api/v2/berry/64/"}]}'
  recorded_at: Thu, 23 Dec 2021 03:09:25 GMT
- request:
    method: get
    uri: https://pokeapi.co/api/v2/berry?limit=20&offset=40
    body:
      encoding: US-ASCII
      string: ''
    headers:
      Accept-Encoding:
      - gzip;q=1.0,deflate;q=0.6,identity;q=0.3
      Accept:
      - "*/*"
      User-Agent:
      - Ruby
      Host:
      - pokeapi.co
  response:
    status:
      code: 200
      message: OK
    headers:
      Date:
      - Thu, 23 Dec 2021 03:09:25 GMT
      Content-Type:
      - application/json; charset=utf-8
      Content-Length:
      - '290'
      Connection:
      - keep-alive
      Access-Control-Allow-Origin:
      - "*"
      Cache-Control:
      - public, max-age=86400, s-maxage=86400
      Etag:
      - W/"562-B0B536EgSFT36g8DsyInYINZnLA"
      Function-Execution-Id:
      - kx5hb5belig5
      X-Cloud-Trace-Context:
      - f9fbc38f84011ccde847bb6e525347b9;o=1
      X-Country-Code:
      - MX
      X-Fh-No-Setcookie-Unroll:
      - 'true'
      X-Powered-By:
      - Express
      X-Served-By:
      - cache-dal21276-DAL
      X-Cache:
      - MISS
      X-Cache-Hits:
      - '0'
      X-Timer:
      - S1640226867.574014,VS0,VE298
      Vary:
      - Accept-Encoding,cookie,need-authorization, x-fh-requested-host, accept-encoding
      Cf-Cache-Status:
      - HIT
      Age:
      - '2099'
      Accept-Ranges:
      - bytes
      Expect-Ct:
      - max-age=604800, report-uri="https://report-uri.cloudflare.com/cdn-cgi/beacon/expect-ct"
      Report-To:
      - '{"endpoints":[{"url":"https:\/\/a.nel.cloudflare.com\/report\/v3?s=V8WQFKFsS18EKpCv7Srw184cGdkMAk%2B3ck3oPevD2UDBQHr2J3g7PFWWGe3nSJU2rBc17bZJcV9KXEc3Fcn9qULAHT%2Faia4cX5eyZmf3GOS%2F4qvVKFcp183ywFgu"}],"group":"cf-nel","max_age":604800}'
      Nel:
      - '{"success_fraction":0,"report_to":"cf-nel","max_age":604800}'
      Server:
      - cloudflare
      Cf-Ray:
      - 6c1e641b0830b2c6-MEX
      Alt-Svc:
      - h3=":443"; ma=86400, h3-29=":443"; ma=86400, h3-28=":443"; ma=86400, h3-27=":443";
        ma=86400
    body:
      encoding: ASCII-8BIT
      string: '{"count":64,"next":"https://pokeapi.co/api/v2/berry?offset=60&limit=4","previous":"https://pokeapi.co/api/v2/berry?offset=20&limit=20","results":[{"name":"chople","url":"https://pokeapi.co/api/v2/berry/41/"},{"name":"kebia","url":"https://pokeapi.co/api/v2/berry/42/"},{"name":"shuca","url":"https://pokeapi.co/api/v2/berry/43/"},{"name":"coba","url":"https://pokeapi.co/api/v2/berry/44/"},{"name":"payapa","url":"https://pokeapi.co/api/v2/berry/45/"},{"name":"tanga","url":"https://pokeapi.co/api/v2/berry/46/"},{"name":"charti","url":"https://pokeapi.co/api/v2/berry/47/"},{"name":"kasib","url":"https://pokeapi.co/api/v2/berry/48/"},{"name":"haban","url":"https://pokeapi.co/api/v2/berry/49/"},{"name":"colbur","url":"https://pokeapi.co/api/v2/berry/50/"},{"name":"babiri","url":"https://pokeapi.co/api/v2/berry/51/"},{"name":"chilan","url":"https://pokeapi.co/api/v2/berry/52/"},{"name":"liechi","url":"https://pokeapi.co/api/v2/berry/53/"},{"name":"ganlon","url":"https://pokeapi.co/api/v2/berry/54/"},{"name":"salac","url":"https://pokeapi.co/api/v2/berry/55/"},{"name":"petaya","url":"https://pokeapi.co/api/v2/berry/56/"},{"name":"apicot","url":"https://pokeapi.co/api/v2/berry/57/"},{"name":"lansat","url":"https://pokeapi.co/api/v2/berry/58/"},{"name":"starf","url":"https://pokeapi.co/api/v2/berry/59/"},{"name":"enigma","url":"https://pokeapi.co/api/v2/berry/60/"}]}'
  recorded_at: Thu, 23 Dec 2021 03:09:25 GMT
recorded_with: VCR 6.0.0
