---
http_interactions:
- request:
    method: get
    uri: https://pokeapi.co/api/v2/berry?limit=20&offset=20
    body:
      encoding: US-ASCII
      string: ''
    headers:
      Accept-Encoding:
      - gzip;q=1.0,deflate;q=0.6,identity;q=0.3
      Accept:
      - "*/*"
      User-Agent:
      - Ruby
      Host:
      - pokeapi.co
  response:
    status:
      code: 200
      message: OK
    headers:
      Date:
      - Thu, 23 Dec 2021 02:36:23 GMT
      Content-Type:
      - application/json; charset=utf-8
      Content-Length:
      - '292'
      Connection:
      - keep-alive
      Access-Control-Allow-Origin:
      - "*"
      Cache-Control:
      - public, max-age=86400, s-maxage=86400
      Etag:
      - W/"560-FbZH80SKD6E6l4qHSgMeILceij8"
      Function-Execution-Id:
      - hzvfwqhsx2jh
      X-Cloud-Trace-Context:
      - dfb753c6ec390920dfbcc9c3f46d6984;o=1
      X-Country-Code:
      - MX
      X-Fh-No-Setcookie-Unroll:
      - 'true'
      X-Powered-By:
      - Express
      X-Served-By:
      - cache-dal21275-DAL
      X-Cache:
      - MISS
      X-Cache-Hits:
      - '0'
      X-Timer:
      - S1640226867.574653,VS0,VE265
      Vary:
      - Accept-Encoding,cookie,need-authorization, x-fh-requested-host, accept-encoding
      Cf-Cache-Status:
      - HIT
      Age:
      - '117'
      Accept-Ranges:
      - bytes
      Expect-Ct:
      - max-age=604800, report-uri="https://report-uri.cloudflare.com/cdn-cgi/beacon/expect-ct"
      Report-To:
      - '{"endpoints":[{"url":"https:\/\/a.nel.cloudflare.com\/report\/v3?s=2iDPIoAVrUR24MfjhrbUtxvvmetzxASKP%2Bs1%2BEyLhSokwV%2BKNeHQCfin9gmEVqCBwtO0pprh%2FoPLbr%2ButqLrnr3ukFjkJkeX1xwtNy3XdnwIeMbUISYoytzshQ7F"}],"group":"cf-nel","max_age":604800}'
      Nel:
      - '{"success_fraction":0,"report_to":"cf-nel","max_age":604800}'
      Server:
      - cloudflare
      Cf-Ray:
      - 6c1e33b548ca5223-MEX
      Alt-Svc:
      - h3=":443"; ma=86400, h3-29=":443"; ma=86400, h3-28=":443"; ma=86400, h3-27=":443";
        ma=86400
    body:
      encoding: ASCII-8BIT
      string: '{"count":64,"next":"https://pokeapi.co/api/v2/berry?offset=40&limit=20","previous":"https://pokeapi.co/api/v2/berry?offset=0&limit=20","results":[{"name":"pomeg","url":"https://pokeapi.co/api/v2/berry/21/"},{"name":"kelpsy","url":"https://pokeapi.co/api/v2/berry/22/"},{"name":"qualot","url":"https://pokeapi.co/api/v2/berry/23/"},{"name":"hondew","url":"https://pokeapi.co/api/v2/berry/24/"},{"name":"grepa","url":"https://pokeapi.co/api/v2/berry/25/"},{"name":"tamato","url":"https://pokeapi.co/api/v2/berry/26/"},{"name":"cornn","url":"https://pokeapi.co/api/v2/berry/27/"},{"name":"magost","url":"https://pokeapi.co/api/v2/berry/28/"},{"name":"rabuta","url":"https://pokeapi.co/api/v2/berry/29/"},{"name":"nomel","url":"https://pokeapi.co/api/v2/berry/30/"},{"name":"spelon","url":"https://pokeapi.co/api/v2/berry/31/"},{"name":"pamtre","url":"https://pokeapi.co/api/v2/berry/32/"},{"name":"watmel","url":"https://pokeapi.co/api/v2/berry/33/"},{"name":"durin","url":"https://pokeapi.co/api/v2/berry/34/"},{"name":"belue","url":"https://pokeapi.co/api/v2/berry/35/"},{"name":"occa","url":"https://pokeapi.co/api/v2/berry/36/"},{"name":"passho","url":"https://pokeapi.co/api/v2/berry/37/"},{"name":"wacan","url":"https://pokeapi.co/api/v2/berry/38/"},{"name":"rindo","url":"https://pokeapi.co/api/v2/berry/39/"},{"name":"yache","url":"https://pokeapi.co/api/v2/berry/40/"}]}'
  recorded_at: Thu, 23 Dec 2021 02:36:22 GMT
recorded_with: VCR 6.0.0
