---
http_interactions:
- request:
    method: get
    uri: https://pokeapi.co/api/v2/pokemon?limit=10&offset=0
    body:
      encoding: US-ASCII
      string: ''
    headers:
      Accept-Encoding:
      - gzip;q=1.0,deflate;q=0.6,identity;q=0.3
      Accept:
      - "*/*"
      User-Agent:
      - Ruby
      Host:
      - pokeapi.co
  response:
    status:
      code: 200
      message: OK
    headers:
      Date:
      - Mon, 27 Dec 2021 20:23:35 GMT
      Content-Type:
      - application/json; charset=utf-8
      Transfer-Encoding:
      - chunked
      Connection:
      - keep-alive
      Access-Control-Allow-Origin:
      - "*"
      Cache-Control:
      - public, max-age=86400, s-maxage=86400
      Etag:
      - W/"2fa-92OLdK5HM0JvHqk5wKQs2MGuzhg"
      Function-Execution-Id:
      - jhlnpznw74a7
      X-Cloud-Trace-Context:
      - fc745471149718598b0b970151c2ff06
      X-Country-Code:
      - MX
      X-Fh-No-Setcookie-Unroll:
      - 'true'
      X-Powered-By:
      - Express
      X-Served-By:
      - cache-dal21240-DAL
      X-Cache:
      - MISS
      X-Cache-Hits:
      - '0'
      X-Timer:
      - S1640625815.315382,VS0,VE423
      Vary:
      - Accept-Encoding,cookie,need-authorization, x-fh-requested-host, accept-encoding
      Cf-Cache-Status:
      - HIT
      Age:
      - '10800'
      Expect-Ct:
      - max-age=604800, report-uri="https://report-uri.cloudflare.com/cdn-cgi/beacon/expect-ct"
      Report-To:
      - '{"endpoints":[{"url":"https:\/\/a.nel.cloudflare.com\/report\/v3?s=P2u%2BT6VDadILn%2FrAx9Q0wJx6tN0CsrrR%2BbouSAM9PuiTFS61hosqW8h%2FibIqSYQDBa3b6hpwzbtVLHXUOzWVVXpxFOdRwGBeDcQVFfsxL8hfLW282e9jwXu0%2Btmr"}],"group":"cf-nel","max_age":604800}'
      Nel:
      - '{"success_fraction":0,"report_to":"cf-nel","max_age":604800}'
      Server:
      - cloudflare
      Cf-Ray:
      - 6c454480fddf5253-MEX
      Alt-Svc:
      - h3=":443"; ma=86400, h3-29=":443"; ma=86400, h3-28=":443"; ma=86400, h3-27=":443";
        ma=86400
    body:
      encoding: ASCII-8BIT
      string: '{"count":1118,"next":"https://pokeapi.co/api/v2/pokemon?offset=10&limit=10","previous":null,"results":[{"name":"bulbasaur","url":"https://pokeapi.co/api/v2/pokemon/1/"},{"name":"ivysaur","url":"https://pokeapi.co/api/v2/pokemon/2/"},{"name":"venusaur","url":"https://pokeapi.co/api/v2/pokemon/3/"},{"name":"charmander","url":"https://pokeapi.co/api/v2/pokemon/4/"},{"name":"charmeleon","url":"https://pokeapi.co/api/v2/pokemon/5/"},{"name":"charizard","url":"https://pokeapi.co/api/v2/pokemon/6/"},{"name":"squirtle","url":"https://pokeapi.co/api/v2/pokemon/7/"},{"name":"wartortle","url":"https://pokeapi.co/api/v2/pokemon/8/"},{"name":"blastoise","url":"https://pokeapi.co/api/v2/pokemon/9/"},{"name":"caterpie","url":"https://pokeapi.co/api/v2/pokemon/10/"}]}'
  recorded_at: Mon, 27 Dec 2021 20:23:44 GMT
recorded_with: VCR 6.0.0
