---
http_interactions:
- request:
    method: get
    uri: https://pokeapi.co/api/v2/pokemon?limit=20&offset=20
    body:
      encoding: US-ASCII
      string: ''
    headers:
      Accept-Encoding:
      - gzip;q=1.0,deflate;q=0.6,identity;q=0.3
      Accept:
      - "*/*"
      User-Agent:
      - Ruby
      Host:
      - pokeapi.co
  response:
    status:
      code: 200
      message: OK
    headers:
      Date:
      - Wed, 22 Dec 2021 17:17:46 GMT
      Content-Type:
      - application/json; charset=utf-8
      Content-Length:
      - '300'
      Connection:
      - keep-alive
      Access-Control-Allow-Origin:
      - "*"
      Cache-Control:
      - public, max-age=86400, s-maxage=86400
      Etag:
      - W/"5bd-TgkQoQBfi6p5AftPliBuf0ChBZA"
      Function-Execution-Id:
      - 3fj75fpysjpl
      X-Cloud-Trace-Context:
      - 8c8ae69cd0ed720e07dc3e6377b62d4b
      X-Country-Code:
      - US
      X-Fh-No-Setcookie-Unroll:
      - 'true'
      X-Orig-Accept-Language:
      - en-US,en;q=0.9
      X-Powered-By:
      - Express
      X-Served-By:
      - cache-bur17557-BUR
      X-Cache:
      - MISS
      X-Cache-Hits:
      - '0'
      X-Timer:
      - S1639970466.922626,VS0,VE373
      Vary:
      - Accept-Encoding,cookie,need-authorization, x-fh-requested-host, accept-encoding
      Cf-Cache-Status:
      - HIT
      Age:
      - '26339'
      Accept-Ranges:
      - bytes
      Expect-Ct:
      - max-age=604800, report-uri="https://report-uri.cloudflare.com/cdn-cgi/beacon/expect-ct"
      Report-To:
      - '{"endpoints":[{"url":"https:\/\/a.nel.cloudflare.com\/report\/v3?s=vPu5Pye%2BiQr6ndLNOlz1YuxDMBiCSeV6uAKZ0NLPFFM%2Fq0eqVciG0aIMmV5GFUGRWJkNASsgbTcB8Qx%2F15VcKALmokMkn3YgM%2B0PKsZMxuLzh0FFgFNAHy%2FWtrgA"}],"group":"cf-nel","max_age":604800}'
      Nel:
      - '{"success_fraction":0,"report_to":"cf-nel","max_age":604800}'
      Server:
      - cloudflare
      Cf-Ray:
      - 6c1b016be85f52bf-LAX
      Alt-Svc:
      - h3=":443"; ma=86400, h3-29=":443"; ma=86400, h3-28=":443"; ma=86400, h3-27=":443";
        ma=86400
    body:
      encoding: ASCII-8BIT
      string: '{"count":1118,"next":"https://pokeapi.co/api/v2/pokemon?offset=40&limit=20","previous":"https://pokeapi.co/api/v2/pokemon?offset=0&limit=20","results":[{"name":"spearow","url":"https://pokeapi.co/api/v2/pokemon/21/"},{"name":"fearow","url":"https://pokeapi.co/api/v2/pokemon/22/"},{"name":"ekans","url":"https://pokeapi.co/api/v2/pokemon/23/"},{"name":"arbok","url":"https://pokeapi.co/api/v2/pokemon/24/"},{"name":"pikachu","url":"https://pokeapi.co/api/v2/pokemon/25/"},{"name":"raichu","url":"https://pokeapi.co/api/v2/pokemon/26/"},{"name":"sandshrew","url":"https://pokeapi.co/api/v2/pokemon/27/"},{"name":"sandslash","url":"https://pokeapi.co/api/v2/pokemon/28/"},{"name":"nidoran-f","url":"https://pokeapi.co/api/v2/pokemon/29/"},{"name":"nidorina","url":"https://pokeapi.co/api/v2/pokemon/30/"},{"name":"nidoqueen","url":"https://pokeapi.co/api/v2/pokemon/31/"},{"name":"nidoran-m","url":"https://pokeapi.co/api/v2/pokemon/32/"},{"name":"nidorino","url":"https://pokeapi.co/api/v2/pokemon/33/"},{"name":"nidoking","url":"https://pokeapi.co/api/v2/pokemon/34/"},{"name":"clefairy","url":"https://pokeapi.co/api/v2/pokemon/35/"},{"name":"clefable","url":"https://pokeapi.co/api/v2/pokemon/36/"},{"name":"vulpix","url":"https://pokeapi.co/api/v2/pokemon/37/"},{"name":"ninetales","url":"https://pokeapi.co/api/v2/pokemon/38/"},{"name":"jigglypuff","url":"https://pokeapi.co/api/v2/pokemon/39/"},{"name":"wigglytuff","url":"https://pokeapi.co/api/v2/pokemon/40/"}]}'
  recorded_at: Wed, 22 Dec 2021 17:18:03 GMT
recorded_with: VCR 6.0.0
